Week 3 Summary
…
Cleaning datasets:

Distinct cases where a particular variable’s values are of the same data type.

Every observation has its own row, every variable has its own column

This is what dyplr is for.

Examples:

mpg%>%
  select(c(model,displ)) # selects particular columns

# A tibble: 234 × 2
   model      displ
   <chr>      <dbl>
 1 a4           1.8
 2 a4           1.8
 3 a4           2  
 4 a4           2  
 5 a4           2.8
 6 a4           2.8
 7 a4           3.1
 8 a4 quattro   1.8
 9 a4 quattro   1.8
10 a4 quattro   2  
# … with 224 more rows
…
mpg%>%
  filter(class == "compact") # selects particular cases based on a set of criteria

# A tibble: 47 × 11
   manufacturer model      displ  year   cyl trans drv     cty   hwy fl    class
   <chr>        <chr>      <dbl> <int> <int> <chr> <chr> <int> <int> <chr> <chr>
 1 audi         a4           1.8  1999     4 auto… f        18    29 p     comp…
 2 audi         a4           1.8  1999     4 manu… f        21    29 p     comp…
 3 audi         a4           2    2008     4 manu… f        20    31 p     comp…
 4 audi         a4           2    2008     4 auto… f        21    30 p     comp…
 5 audi         a4           2.8  1999     6 auto… f        16    26 p     comp…
 6 audi         a4           2.8  1999     6 manu… f        18    26 p     comp…
 7 audi         a4           3.1  2008     6 auto… f        18    27 p     comp…
 8 audi         a4 quattro   1.8  1999     4 manu… 4        18    26 p     comp…
 9 audi         a4 quattro   1.8  1999     4 auto… 4        16    25 p     comp…
10 audi         a4 quattro   2    2008     4 manu… 4        20    28 p     comp…
# … with 37 more rows
…
